Wall time,Step,Value
1715937941.850237,0,0.6315686702728271
1715938048.948666,1,0.5400373935699463
1715938134.548141,2,0.5106089115142822
1715938220.484606,3,0.49421149492263794
1715938308.003745,4,0.481073796749115
1715938401.195069,5,0.47042226791381836
1715938489.053555,6,0.45988789200782776
1715938578.256876,7,0.45287197828292847
1715938668.745211,8,0.44558587670326233
1715938760.72116,9,0.4394422173500061
1715938854.572865,10,0.43388745188713074
1715938948.168994,11,0.4286441206932068
1715939042.892188,12,0.42467302083969116
1715939139.101174,13,0.4188443422317505
1715939235.983188,14,0.414838582277298
1715939334.572545,15,0.410515695810318
1715939434.071954,16,0.4062643051147461
1715939534.976389,17,0.403206467628479
1715939640.961041,18,0.40055063366889954
1715939748.558405,19,0.39525550603866577
1715939857.174742,20,0.39441031217575073
1715939968.25278,21,0.39067983627319336
1715940080.770815,22,0.3880382478237152
1715940194.48697,23,0.3860545754432678
1715940309.43277,24,0.382686048746109
1715940426.084701,25,0.38091909885406494
1715940545.069872,26,0.3768777847290039
1715940665.521916,27,0.37576165795326233
1715940787.829259,28,0.3740139901638031
1715940911.788896,29,0.3709961473941803
