,precision,recall,f1-score,support
,,,,
WAKE,0.87,0.92,0.9,31788
NREM1,0.31,0.21,0.25,9626
NREM2,0.72,0.81,0.76,21560
NREM3,0.78,0.49,0.6,2464
REM,0.4,0.37,0.38,7661
,,,,
accuracy,,,0.72,73099
macro avg,0.62,0.56,0.58,73099
weighted avg,0.7,0.72,0.71,73099
